<?xml version="1.0" encoding="utf-8"?>
<!-- Generator: Adobe Illustrator 21.0.1, SVG Export Plug-In . SVG Version: 6.00 Build 0)  -->
<svg version="1.1" id="Calque_1" xmlns="http://www.w3.org/2000/svg" xmlns:xlink="http://www.w3.org/1999/xlink" x="0px" y="0px"
	 viewBox="0 0 48.5 48.5" style="enable-background:new 0 0 48.5 48.5;" xml:space="preserve">
<style type="text/css">
	.st0{fill:#D8000C;}
</style>
<path class="st0" d="M24.3,0C10.9,0,0,10.9,0,24.3s10.9,24.3,24.3,24.3s24.3-10.9,24.3-24.3C48.5,10.9,37.7,0,24.3,0z M24.3,9.4
	c1.5,0,2.7,1.2,2.7,2.7l-0.7,16.3c-0.1,1.5-1.2,2-2,2c-0.9,0-2-0.5-2-2l-0.7-16.3C21.5,10.6,22.8,9.4,24.3,9.4z M26.7,38.8
	c-0.6,0.7-1.5,1-2.5,1c-0.9,0-1.8-0.4-2.5-1c-0.7-0.7-1-1.6-1-2.5c0-0.9,0.4-1.8,1-2.5c0.7-0.7,1.6-1,2.5-1c0.9,0,1.8,0.4,2.5,1
	c0.7,0.7,1,1.6,1,2.5C27.8,37.2,27.4,38.1,26.7,38.8z"/>
</svg>
