<?xml version="1.0" encoding="utf-8"?>
<!-- Generator: Adobe Illustrator 21.0.1, SVG Export Plug-In . SVG Version: 6.00 Build 0)  -->
<svg version="1.1" id="Calque_1" xmlns="http://www.w3.org/2000/svg" xmlns:xlink="http://www.w3.org/1999/xlink" x="0px" y="0px"
	 viewBox="0 0 64 44.1" style="enable-background:new 0 0 64 44.1;" xml:space="preserve">
<style type="text/css">
	.st0{fill:#9B59B6;}
</style>
<title>1Artboard 50</title>
<path class="st0" d="M0,41.7C0.9,31.3,6.1,12,34,12V1.9c0.1-1.1,1-2,2.1-1.9c0.4,0,0.7,0.1,1,0.3l25.6,19.2c1.4,1,1.7,3,0.7,4.3
	c-0.2,0.2-0.4,0.5-0.7,0.7L37.1,43.7c-0.9,0.6-2.2,0.4-2.8-0.5c-0.2-0.3-0.3-0.7-0.3-1V32c0,0-18.2-3.3-30.5,11.1
	c-0.7,0.8-2,0.9-2.8,0.2C0.2,42.9,0,42.3,0,41.7z"/>
</svg>
