<?xml version="1.0" encoding="utf-8"?>
<!-- Generator: Adobe Illustrator 21.1.0, SVG Export Plug-In . SVG Version: 6.00 Build 0)  -->
<svg version="1.1" id="Calque_1" xmlns="http://www.w3.org/2000/svg" xmlns:xlink="http://www.w3.org/1999/xlink" x="0px" y="0px"
	 viewBox="0 0 75.2 75.8" style="enable-background:new 0 0 75.2 75.8;" xml:space="preserve">
<style type="text/css">
	.st0{fill:#333333;}
</style>
<g>
	<path class="st0" d="M73.9,0H1.2C0.6,0,0,0.6,0,1.2v9.7v63.7c0,0.7,0.6,1.2,1.2,1.2h72.7c0.7,0,1.2-0.6,1.2-1.2V10.9V1.2
		C75.2,0.6,74.6,0,73.9,0z M2.5,2.5h70.2v7.2H2.5V2.5z M72.7,73.3H2.5V12.2h70.2V73.3z"/>
	<path class="st0" d="M54.9,29.8h9.2c0.7,0,1.2-0.6,1.2-1.2v-9.5c0-0.7-0.6-1.2-1.2-1.2h-9.2c-0.7,0-1.2,0.6-1.2,1.2v9.5
		C53.7,29.3,54.2,29.8,54.9,29.8z M56.2,20.3h6.8v7h-6.8V20.3z"/>
	<path class="st0" d="M54.9,47.8h9.2c0.7,0,1.2-0.6,1.2-1.2V37c0-0.7-0.6-1.2-1.2-1.2h-9.2c-0.7,0-1.2,0.6-1.2,1.2v9.5
		C53.7,47.2,54.2,47.8,54.9,47.8z M56.2,38.2h6.8v7h-6.8V38.2z"/>
	<path class="st0" d="M10.4,47.7h35.8c0.7,0,1.2-0.6,1.2-1.2V37V19.1c0-0.7-0.6-1.2-1.2-1.2H10.4c-0.7,0-1.2,0.6-1.2,1.2V37v9.5
		C9.2,47.1,9.7,47.7,10.4,47.7z M44.9,45.2H11.7v-7h33.2V45.2z M11.7,20.3h33.2v15.4H11.7V20.3z"/>
	<path class="st0" d="M31.9,27l-6-3.7l-1.3,2.1l4.3,2.7l-4.3,2.7l1.3,2.1l6-3.7c0.4-0.2,0.6-0.6,0.6-1.1S32.3,27.2,31.9,27z"/>
	<rect x="10.4" y="54.5" class="st0" width="17.9" height="2.5"/>
	<rect x="10.4" y="58.9" class="st0" width="35.8" height="2.5"/>
	<rect x="10.4" y="63.6" class="st0" width="53.8" height="2.5"/>
	<rect x="6.4" y="4.8" class="st0" width="5.5" height="2.5"/>
	<rect x="15.5" y="4.8" class="st0" width="5.5" height="2.5"/>
</g>
</svg>
