<?xml version="1.0" encoding="utf-8"?>
<!-- Generator: Adobe Illustrator 21.1.0, SVG Export Plug-In . SVG Version: 6.00 Build 0)  -->
<svg version="1.1" id="Calque_1" xmlns="http://www.w3.org/2000/svg" xmlns:xlink="http://www.w3.org/1999/xlink" x="0px" y="0px"
	 viewBox="0 0 56 73.5" style="enable-background:new 0 0 56 73.5;" xml:space="preserve">
<style type="text/css">
	.st0{fill:#333333;}
</style>
<g>
	<path class="st0" d="M6,73.5h44c3.3,0,6-2.7,6-6v-34c0-3.3-2.7-6-6-6h-1v-6.3C49,9.5,39.6,0,28,0S7,9.5,7,21.2v6.3H6
		c-3.3,0-6,2.7-6,6v34C0,70.8,2.7,73.5,6,73.5z M13,21.2C13,12.8,19.7,6,28,6s15,6.8,15,15.2v6.3H13V21.2z M6,33.5h44v34H6V33.5z"/>
	<rect x="25" y="47.5" class="st0" width="6" height="12"/>
</g>
</svg>
