<?xml version="1.0" encoding="utf-8"?>
<!-- Generator: Adobe Illustrator 21.1.0, SVG Export Plug-In . SVG Version: 6.00 Build 0)  -->
<svg version="1.1" id="Calque_1" xmlns="http://www.w3.org/2000/svg" xmlns:xlink="http://www.w3.org/1999/xlink" x="0px" y="0px"
	 viewBox="0 0 73.7 92.9" style="enable-background:new 0 0 73.7 92.9;" xml:space="preserve">
<style type="text/css">
	.st0{fill:#515151;}
</style>
<path class="st0" d="M50.9,0H11.1C5,0,0,5,0,11.1v70.7C0,88,5,92.9,11.1,92.9h51.6c6.1,0,11.1-5,11.1-11.1V25.6L50.9,0z M51.7,5.4
	l17.2,19.2H51.7V5.4z M70.7,81.8c0,4.5-3.6,8.1-8.1,8.1H11.1c-4.5,0-8.1-3.6-8.1-8.1V11.1C3,6.6,6.6,3,11.1,3h37.6v24.6h22V81.8z"/>
<polygon class="st0" points="38.1,37.8 35.1,37.8 35.1,52 20.9,52 20.9,55 35.1,55 35.1,69.2 38.1,69.2 38.1,55 52.3,55 52.3,52 
	38.1,52 "/>
</svg>
