<?xml version="1.0" encoding="utf-8"?>
<!-- Generator: Adobe Illustrator 21.1.0, SVG Export Plug-In . SVG Version: 6.00 Build 0)  -->
<svg version="1.1"
	 id="Calque_1" xmlns:cc="http://creativecommons.org/ns#" xmlns:dc="http://purl.org/dc/elements/1.1/" xmlns:inkscape="http://www.inkscape.org/namespaces/inkscape" xmlns:rdf="http://www.w3.org/1999/02/22-rdf-syntax-ns#" xmlns:sodipodi="http://sodipodi.sourceforge.net/DTD/sodipodi-0.dtd" xmlns:svg="http://www.w3.org/2000/svg"
	 xmlns="http://www.w3.org/2000/svg" xmlns:xlink="http://www.w3.org/1999/xlink" x="0px" y="0px" viewBox="0 0 80 64"
	 style="enable-background:new 0 0 80 64;" xml:space="preserve">
<style type="text/css">
	.st0{fill:#3498DB;}
</style>
<g transform="translate(0,-952.36218)">
	<path class="st0" d="M39.9,952.4c-0.4,0-0.8,0.1-1.2,0.4l-38,30c-0.9,0.7-1,2-0.3,2.8c0.6,0.8,2,1,2.8,0.3l36.8-29l36.8,29
		c0.8,0.7,2.2,0.5,2.8-0.3c0.6-0.8,0.6-2.2-0.3-2.8L65,971.5v-17.2c0-1.1-0.9-2-2-2h-8c-1.1,0-2,0.9-2,2v7.7l-11.8-9.3
		C40.8,952.5,40.4,952.4,39.9,952.4z M57,956.4h4v12l-4-3.2V956.4z M15,979.3l-4,3.2v31.9c0,1.1,0.9,2,2,2h18c1.1,0,2-0.9,2-2v-18
		h14v18c0,1.1,0.9,2,2,2h18c1.1,0,2-0.9,2-2v-31.9l-4-3.2v33.1H51v-18c0-1.1-0.9-2-2-2H31c-1.1,0-2,0.9-2,2v18H15V979.3L15,979.3z"
		/>
</g>
</svg>
