<?xml version="1.0" encoding="utf-8"?>
<!-- Generator: Adobe Illustrator 21.0.1, SVG Export Plug-In . SVG Version: 6.00 Build 0)  -->
<svg version="1.1" id="Calque_1" xmlns="http://www.w3.org/2000/svg" xmlns:xlink="http://www.w3.org/1999/xlink" x="0px" y="0px"
	 viewBox="0 0 77.2 76.4" style="enable-background:new 0 0 77.2 76.4;" xml:space="preserve">
<style type="text/css">
	.st0{fill:#2ECC71;}
</style>
<title>button-is-default</title>
<g id="a">
	<path class="st0" d="M75.6,34.5c1.5-1.5,2-3.8,1.3-5.8c-0.6-2-2.4-3.5-4.5-3.7l-20.1-3L43.6,3.2c-0.8-2-2.8-3.3-5-3.2
		c-2.2-0.1-4.3,1.2-5.2,3.2L24.9,22L4.8,25c-2.1,0.2-3.9,1.7-4.5,3.7c-0.7,2-0.2,4.3,1.3,5.8l14.8,15.1l-4,20.4c-0.2,1,0,2.1,0.4,3
		c0.4,1,1,1.8,1.9,2.4c0.9,0.7,2.1,1,3.2,1c1,0,1.9-0.2,2.8-0.7L38.7,66l17.9,9.8c0.9,0.4,1.8,0.6,2.8,0.7c1.1,0,2.3-0.3,3.2-1
		c0.9-0.6,1.5-1.4,1.9-2.4c0.4-0.9,0.5-2,0.3-3l-3.9-20.5L75.6,34.5 M38.7,6.4L47,24.7c0.8,1.7,2.3,2.8,4.2,3l19.4,3L56.3,45.5
		c-1.3,1.2-1.8,3-1.5,4.7l4,19.8l-17.6-9.5c-0.9-0.4-1.8-0.6-2.8-0.7c-0.9,0-1.8,0.3-2.5,0.7L18.3,70l4-19.8
		c0.4-1.7-0.2-3.5-1.5-4.7L6.6,30.8l19.4-3c1.8-0.2,3.4-1.3,4.1-3L38.7,6.4z"/>
</g>
</svg>
