<?xml version="1.0" encoding="utf-8"?>
<!-- Generator: Adobe Illustrator 21.0.1, SVG Export Plug-In . SVG Version: 6.00 Build 0)  -->
<svg version="1.1" id="Calque_1" xmlns="http://www.w3.org/2000/svg" xmlns:xlink="http://www.w3.org/1999/xlink" x="0px" y="0px"
	 viewBox="0 0 70 90" style="enable-background:new 0 0 70 90;" xml:space="preserve">
<style type="text/css">
	.st0{fill:#DBDBDB;}
</style>
<path class="st0" d="M67.5,0h-65C1.1,0,0,1.1,0,2.5v85C0,88.9,1.1,90,2.5,90h65c1.4,0,2.5-1.1,2.5-2.5v-85C70,1.1,68.9,0,67.5,0z
	 M65,85H5V5h60V85z"/>
<path class="st0" d="M12.5,25h45c1.4,0,2.5-1.1,2.5-2.5v-10c0-1.4-1.1-2.5-2.5-2.5h-45c-1.4,0-2.5,1.1-2.5,2.5v10
	C10,23.9,11.1,25,12.5,25z M15,15h40v5H15V15z"/>
</svg>
