<?xml version="1.0" encoding="utf-8"?>
<!-- Generator: Adobe Illustrator 21.1.0, SVG Export Plug-In . SVG Version: 6.00 Build 0)  -->
<svg version="1.1" id="Calque_1" xmlns="http://www.w3.org/2000/svg" xmlns:xlink="http://www.w3.org/1999/xlink" x="0px" y="0px"
	 viewBox="0 0 62 62" style="enable-background:new 0 0 62 62;" xml:space="preserve">
<style type="text/css">
	.st0{fill:#515151;}
</style>
<path class="st0" d="M57,0H39c-2.8,0-5,2.2-5,5v18c0,2.8,2.2,5,5,5h18c2.8,0,5-2.2,5-5V5C62,2.2,59.8,0,57,0z M60,23
	c0,1.7-1.3,3-3,3H39c-1.7,0-3-1.3-3-3V5c0-1.7,1.3-3,3-3h18c1.7,0,3,1.3,3,3V23z M57,34H39c-2.8,0-5,2.2-5,5v18c0,2.8,2.2,5,5,5h18
	c2.8,0,5-2.2,5-5V39C62,36.2,59.8,34,57,34z M60,57c0,1.7-1.3,3-3,3H39c-1.7,0-3-1.3-3-3V39c0-1.7,1.3-3,3-3h18c1.7,0,3,1.3,3,3V57z
	 M23,34H5c-2.8,0-5,2.2-5,5v18c0,2.8,2.2,5,5,5h18c2.8,0,5-2.2,5-5V39C28,36.2,25.8,34,23,34z M26,57c0,1.7-1.3,3-3,3H5
	c-1.7,0-3-1.3-3-3V39c0-1.7,1.3-3,3-3h18c1.7,0,3,1.3,3,3V57z M23,0H5C2.2,0,0,2.2,0,5v18c0,2.8,2.2,5,5,5h18c2.8,0,5-2.2,5-5V5
	C28,2.2,25.8,0,23,0z M26,23c0,1.7-1.3,3-3,3H5c-1.7,0-3-1.3-3-3V5c0-1.7,1.3-3,3-3h18c1.7,0,3,1.3,3,3V23z M14,7c-4.4,0-8,3.1-8,7
	c0,1.4,0.5,2.7,1.3,3.9l-0.3,2c-0.1,0.3,0.1,0.6,0.3,0.9C7.5,20.9,7.9,21,8.2,21l2.9-0.5C12,20.8,13,21,14,21c4.4,0,8-3.1,8-7
	S18.4,7,14,7z M14,19c-0.9,0-1.7-0.2-2.5-0.5c-0.1,0-0.2-0.1-0.4-0.1c-0.1,0-0.1,0-0.2,0l-1.8,0.3l0.2-1c0-0.3,0-0.6-0.2-0.8
	C8.4,16.1,8,15.1,8,14c0-2.8,2.7-5,6-5s6,2.2,6,5S17.3,19,14,19z M55,8H41c-0.6,0-1,0.4-1,1v10c0,0.6,0.4,1,1,1h14c0.6,0,1-0.4,1-1
	V9C56,8.4,55.6,8,55,8z M54,10v0.9l-6,3l-6-3V10H54z M42,18v-5.9l6,3l6-3V18H42z M18,41h-8c-1.7,0-3,1.3-3,3v8c0,1.7,1.3,3,3,3h8
	c1.7,0,3-1.3,3-3v-8C21,42.3,19.7,41,18,41z M10,43h8c0.6,0,1,0.4,1,1v1H9v-1C9,43.4,9.4,43,10,43z M18,53h-8c-0.6,0-1-0.4-1-1v-6
	h10v6C19,52.6,18.6,53,18,53z M54.6,47.2l-9-6c-0.3-0.2-0.7-0.2-1,0C44.2,41.3,44,41.6,44,42v12c0,0.4,0.2,0.7,0.5,0.9
	s0.7,0.2,1-0.1l9-6c0.3-0.2,0.4-0.5,0.4-0.8S54.8,47.4,54.6,47.2z M46,52.1v-8.3l6.2,4.1L46,52.1z"/>
</svg>
